{
  "nAscans": 900,
  "nBscans": 900,
  "X": 10.00,
  "Y": 10.00,
  "path": "Measurments/%Y-%m-%d %H_%M_%S",
  "exportRAWGrayscale8bit": "8bit.raw",
  "exportSRM": "data.srm",
  "colorBoundaries":[0.0,70.0]

}
